objid	container	server_template_crc	cell_index	px	py	pz	qw	qx	qy	qz	scripts	objvars
i	i	h	i	f	f	f	f	f	f	f	s	p
1105902	0	object/static/structure/general/skeleton_human_headandbody.iff	0	1068.74	461.87	1174.25	0.902509	0.0135387	-0.430409	0.00645662		$|
1105905	0	object/static/particle/pt_miasma_of_fog_mustard.iff	0	1077.76	461.02	1184.09	1	0	0	0		$|
1105908	0	object/static/particle/pt_flocking_glowzees.iff	0	1069.07	461.138	1175.45	1	0	0	0		$|
2635352	0	object/building/tatooine/cave_tatooine_style_02.iff	0	1698.04	118.627	874.673	0.884675	0	0.466209	0		$|
2635353	2635352	object/cell/cell.iff	1	0	0	0	1	0	0	0		$|
2635354	2635352	object/cell/cell.iff	2	0	0	0	1	0	0	0		$|
2635355	2635352	object/cell/cell.iff	3	0	0	0	1	0	0	0		$|
8395452	2635355	object/tangible/poi/spawnegg/interior_spawnegg.iff	3	-27.20772743	-38.24858093	-64.54293823	1	0	0	0		intRandomYaw|0|1|$|
2635356	2635352	object/cell/cell.iff	4	0	0	0	1	0	0	0		$|
8395453	2635356	object/tangible/poi/spawnegg/interior_spawnegg.iff	4	-29.07706642	-51.09053421	-114.1423874	1	0	0	0		intRandomYaw|0|1|$|
2635357	2635352	object/cell/cell.iff	5	0	0	0	1	0	0	0		$|
8575465	2635357	object/tangible/poi/spawnegg/interior_spawnegg.iff	5	-12.22964382	-48.43250275	-167.7812042	1	0	0	0		intRandomYaw|0|1|$|
2635358	2635352	object/cell/cell.iff	6	0	0	0	1	0	0	0		$|
2635359	2635352	object/cell/cell.iff	7	0	0	0	1	0	0	0		$|
2635360	2635352	object/cell/cell.iff	8	0	0	0	1	0	0	0		$|
2635361	2635352	object/cell/cell.iff	9	0	0	0	1	0	0	0		$|
8575466	2635361	object/tangible/poi/spawnegg/interior_spawnegg.iff	9	-62.3471756	-66.37563324	-194.555481	1	0	0	0		intRandomYaw|0|1|$|
8575467	2635361	object/tangible/poi/spawnegg/interior_spawnegg.iff	9	-63.65757751	-67.07936096	-197.3415222	1	0	0	0		intRandomYaw|0|1|$|
2635362	2635352	object/cell/cell.iff	10	0	0	0	1	0	0	0		$|
2635363	2635352	object/cell/cell.iff	11	0	0	0	1	0	0	0		$|
8575468	2635363	object/tangible/poi/spawnegg/interior_spawnegg.iff	11	60.8498497	-80.47678375	-231.6949158	1	0	0	0		intRandomYaw|0|1|$|
8575469	2635363	object/tangible/poi/spawnegg/interior_spawnegg.iff	11	41.87997055	-79.35388184	-249.6578217	1	0	0	0		intRandomYaw|0|1|$|
8575470	2635363	object/tangible/poi/spawnegg/interior_spawnegg.iff	11	43.28978348	-81.72787476	-239.550827	1	0	0	0		intRandomYaw|0|1|$|
2635364	2635352	object/cell/cell.iff	12	0	0	0	1	0	0	0		$|
2635365	2635352	object/cell/cell.iff	13	0	0	0	1	0	0	0		$|
8575471	2635365	object/tangible/poi/spawnegg/interior_spawnegg.iff	13	11.83082485	-79.3368454	-277.0304565	1	0	0	0		intRandomYaw|0|1|$|
2635366	2635352	object/cell/cell.iff	14	0	0	0	1	0	0	0		$|
2635367	2635352	object/cell/cell.iff	15	0	0	0	1	0	0	0		$|
2635368	2635352	object/cell/cell.iff	16	0	0	0	1	0	0	0		$|
2635369	2635352	object/cell/cell.iff	17	0	0	0	1	0	0	0		$|
8575472	2635369	object/tangible/poi/spawnegg/interior_spawnegg.iff	17	-147.5395355	-118.5793991	-334.2179565	1	0	0	0		intRandomYaw|0|1|$|
2665353	0	object/static/structure/corellia/corl_imprv_wall_4x32_s03.iff	0	1691.99	128	844.084	0.898261	0	-0.439462	0		$|
2665354	0	object/static/structure/corellia/corl_imprv_wall_4x32_s03.iff	0	1693.4	127.998	870.263	-0.475732	0	0.87959	0		$|
2665357	0	object/static/structure/military/military_wall_strong_imperial_style_01.iff	0	1711.81	128	855.297	0.839192	0	-0.543835	0		$|
2665361	0	object/static/structure/military/military_wall_strong_imperial_style_01.iff	0	1696.7	127.991	883.844	-0.535416	0	0.844589	0		$|
2665363	0	object/building/military/military_base_police_station_imperial_style_01.iff	0	1827.64	120	927.306	0.71442	0	0.699717	0	theme_park.dungeon.generic_spawner	spawn_table|4|datatables/spawning/poi_spawner/dathomir/dath_imp_prison_bunker.iff|$|
2665364	2665363	object/cell/cell.iff	1	0	0	0	1	0	0	0		$|
2665365	2665363	object/cell/cell.iff	2	0	0	0	1	0	0	0		$|
2665366	2665363	object/cell/cell.iff	3	0	0	0	1	0	0	0		$|
2665367	2665363	object/cell/cell.iff	4	0	0	0	1	0	0	0		$|
2665368	2665363	object/cell/cell.iff	5	0	0	0	1	0	0	0		$|
2665369	2665363	object/cell/cell.iff	6	0	0	0	1	0	0	0		$|
2665370	2665363	object/cell/cell.iff	7	0	0	0	1	0	0	0		$|
9746470	2665370	object/tangible/collection/storm_trooper_right_bicep.iff	7	-4.31361	1.5129	-21.0673	0.79187	0.608157	0.048757	0.0266506		$|
2665371	2665363	object/cell/cell.iff	8	0	0	0	1	0	0	0		$|
2665372	2665363	object/cell/cell.iff	9	0	0	0	1	0	0	0		$|
2665373	2665363	object/cell/cell.iff	10	0	0	0	1	0	0	0		$|
2665374	2665363	object/cell/cell.iff	11	0	0	0	1	0	0	0		$|
2665375	2665363	object/cell/cell.iff	12	0	0	0	1	0	0	0		$|
2665400	0	object/static/structure/corellia/corl_imprv_gate_sm_s03.iff	0	2043.97	127.876	973.171	0.707109	0	0.707104	0		$|
2665401	0	object/static/structure/corellia/corl_imprv_gate_sm_s03.iff	0	1990.75	128	1018.3	-0.219007	0	0.975723	0		$|
2665404	0	object/static/structure/corellia/corl_imprv_wall_4x32_s03.iff	0	1969.68	128	1032.7	0.995953	0	0.0898789	0		$|
2665414	0	object/static/structure/military/military_wall_strong_imperial_style_01.iff	0	1934.83	128	1024.94	0.959662	0	0.281158	0		$|
2665421	0	object/static/structure/corellia/corl_imprv_wall_4x32_s03.iff	0	1927.91	128	1046.74	0.904751	0	0.42594	0		$|
2665422	0	object/static/structure/corellia/corl_imprv_wall_4x16_s03.iff	0	1946.01	127.97	1034.92	0.9992	0	-0.0399893	0		$|
2665427	0	object/static/structure/military/military_wall_strong_imperial_style_01.iff	0	2016.64	128	988.059	0.764842	0	0.644218	0		$|
2665428	0	object/static/structure/military/military_wall_strong_imperial_style_01.iff	0	2013.58	128	980.776	0.305817	0	0.95209	0		$|
2665429	0	object/static/structure/military/military_wall_strong_imperial_style_01.iff	0	2010.94	128	973.678	0.764842	0	0.644218	0		$|
2665430	0	object/static/structure/military/military_wall_strong_imperial_style_01.iff	0	2014.74	128	966.651	0.932327	0	0.361616	0		$|
2665436	0	object/static/structure/corellia/corl_imprv_wall_4x32_s03.iff	0	2019.88	127.876	925.876	0.453597	0	0.891207	0		$|
2665437	0	object/static/structure/military/military_wall_strong_imperial_style_01.iff	0	2019.74	127.984	959.898	0.841901	0	0.539632	0		$|
2665438	0	object/static/structure/corellia/corl_stair_medium_s01.iff	0	1978.4	120	1003.54	-0.376297	0	0.926499	0		$|
2665439	0	object/static/structure/corellia/corl_imprv_bridge_insert_s02.iff	0	1982.3	127.752	1007.52	0.928665	0	0.37092	0		$|
2665497	0	object/static/structure/corellia/corl_imprv_wall_4x32_s03.iff	0	1904.46	120	860.67	-0.673699	0	0.739006	0		$|
2665499	0	object/static/structure/corellia/corl_imprv_gate_sm_s03.iff	0	1799.42	120	877.348	1	0	0	0		$|
2665503	0	object/static/structure/corellia/corl_imprv_wall_4x32_s03.iff	0	1863.23	120	884.3	1	0	0	0		$|
2665527	0	object/static/structure/corellia/corl_imprv_wall_4x16_s03.iff	0	1824.89	120	822.185	0.999888	0	-0.0149995	0		$|
2665556	0	object/static/structure/corellia/corl_imprv_wall_4x16_s03.iff	0	1846.57	120	876.001	0.707108	0	0.707105	0		$|
2665592	0	object/static/structure/corellia/corl_imprv_wall_4x32_s03.iff	0	1835.79	120	1048.38	0.970137	0	0.242556	0		$|
2665594	0	object/static/structure/corellia/corl_imprv_gate_sm_s03.iff	0	1811.33	120	989.219	-0.0906721	0	0.995881	0		$|
2665595	0	object/static/structure/corellia/corl_imprv_wall_4x32_s03.iff	0	1882.48	120	1044.9	0.0291991	0	0.999574	0		$|
2665596	0	object/static/structure/corellia/corl_imprv_wall_4x32_s03.iff	0	1921.25	120	1007.58	0.751806	0	-0.659385	0		$|
2665598	0	object/static/structure/corellia/corl_imprv_wall_4x32_s03.iff	0	1911.34	120	1034.98	-0.348337	0	0.937369	0		$|
2665600	0	object/static/structure/corellia/corl_imprv_wall_4x32_s03.iff	0	1904.32	120	983.644	0.236929	0	0.971527	0		$|
2665603	0	object/static/structure/corellia/corl_imprv_wall_4x16_s03.iff	0	1880.89	120	978.183	-0.1056	0	0.994409	0		$|
2665604	0	object/static/structure/corellia/corl_imprv_wall_4x16_s03.iff	0	1858.36	120	1042.35	0.113955	0	0.993486	0		$|
2665605	0	object/static/structure/corellia/corl_imprv_wall_4x32_s03.iff	0	1831.46	120	985.992	0.996802	0	0.0799154	0		$|
2665606	0	object/static/structure/corellia/corl_imprv_wall_4x32_s03.iff	0	1775.35	120	1012.81	0.721383	0	0.692537	0		$|
2665607	0	object/static/structure/corellia/corl_imprv_wall_4x32_s03.iff	0	1781.88	120	1043.55	0.52762	0	0.849481	0		$|
2665608	0	object/static/structure/corellia/corl_imprv_wall_4x32_s03.iff	0	1805.43	120	1057.03	0.999388	0	0.0349922	0		$|
2665609	0	object/static/structure/corellia/corl_imprv_gate_sm_s03.iff	0	1847.73	120	988.23	0.688345	0	0.725383	0		$|
2665611	0	object/static/structure/corellia/corl_imprv_wall_4x16_s03.iff	0	1855.75	120	982.618	-0.03579	0	0.999359	0		$|
2665661	0	object/building/military/military_base_shed_imperial_style_01.iff	0	1809.04	120	958.853	0.999987	0	-0.00499753	0		$|
2665662	2665661	object/cell/cell.iff	1	0	0	0	1	0	0	0		$|
2665663	2665661	object/cell/cell.iff	2	0	0	0	1	0	0	0		$|
2665664	2665661	object/cell/cell.iff	3	0	0	0	1	0	0	0		$|
2665665	2665661	object/cell/cell.iff	4	0	0	0	1	0	0	0		$|
2665666	2665661	object/cell/cell.iff	5	0	0	0	1	0	0	0		$|
2665667	2665661	object/cell/cell.iff	6	0	0	0	1	0	0	0		$|
2665668	0	object/building/military/military_base_shed_imperial_style_01.iff	0	1824.39	120	958.912	0.999987	0	-0.00499766	0		$|
2665669	2665668	object/cell/cell.iff	1	0	0	0	1	0	0	0		$|
2665670	2665668	object/cell/cell.iff	2	0	0	0	1	0	0	0		$|
2665671	2665668	object/cell/cell.iff	3	0	0	0	1	0	0	0		$|
2665672	2665668	object/cell/cell.iff	4	0	0	0	1	0	0	0		$|
2665673	2665668	object/cell/cell.iff	5	0	0	0	1	0	0	0		$|
2665674	2665668	object/cell/cell.iff	6	0	0	0	1	0	0	0		$|
2665675	0	object/building/military/military_base_shed_imperial_style_01.iff	0	1839.61	120	959.07	0.999987	0	-0.00499766	0		$|
2665676	2665675	object/cell/cell.iff	1	0	0	0	1	0	0	0		$|
2665677	2665675	object/cell/cell.iff	2	0	0	0	1	0	0	0		$|
2665678	2665675	object/cell/cell.iff	3	0	0	0	1	0	0	0		$|
2665679	2665675	object/cell/cell.iff	4	0	0	0	1	0	0	0		$|
2665680	2665675	object/cell/cell.iff	5	0	0	0	1	0	0	0		$|
2665681	2665675	object/cell/cell.iff	6	0	0	0	1	0	0	0		$|
2666201	0	object/building/military/military_outpost_guard_tower_1.iff	0	2031.73	128.051	946.704	-3.20E-08	0	1	0		$|
2666205	0	object/static/structure/military/military_column_strong_imperial_style_01.iff	0	1918.96	120.339	991.682	0.99955	0	0.0299955	0		$|
2666206	0	object/static/structure/military/military_column_strong_imperial_style_01.iff	0	1923.49	120.435	1024.26	0.96639	0	0.257081	0		$|
2666207	0	object/static/structure/military/military_column_strong_imperial_style_01.iff	0	1889.77	120.348	976.418	0.999388	0	0.0349929	0		$|
2666209	0	object/static/structure/corellia/corl_imprv_wall_4x32_s03.iff	0	1901.96	128	1063.29	0.991562	0	0.129634	0		$|
2666210	0	object/static/structure/corellia/corl_imprv_wall_4x32_s03.iff	0	1838.9	127.999	1075.15	0.978031	0	0.20846	0		$|
2666211	0	object/static/structure/military/military_column_strong_imperial_style_01.iff	0	1885.88	128.36	1067.45	1	0	0	0		$|
2666212	0	object/building/military/military_outpost_guard_tower_1.iff	0	1861.34	128	1066.58	0.625518	0	0.780209	0		$|
2666214	0	object/static/structure/corellia/corl_imprv_wall_4x16_s03.iff	0	1877.08	127.997	1066.03	0.997551	0	-0.0699429	0		$|
2666215	0	object/static/structure/military/military_column_strong_imperial_style_01.iff	0	1869.17	128.323	1064.73	0.99639	0	-0.0848975	0		$|
2666216	0	object/static/structure/military/military_wall_weak_imperial_style_01.iff	0	1865.13	126.566	1064.42	0.99955	0	-0.0299955	0		$|
2666217	0	object/static/structure/military/military_wall_weak_imperial_style_01.iff	0	1857.56	126.608	1066.37	-0.27712	0	0.960835	0		$|
2666218	0	object/static/structure/military/military_column_strong_imperial_style_01.iff	0	1854.09	128.365	1068.48	-0.223882	0	0.974616	0		$|
2666219	0	object/static/structure/corellia/corl_imprv_wall_4x32_s03.iff	0	1808.22	128	1079.83	0.998201	0	-0.0599644	0		$|
2666220	0	object/static/structure/military/military_column_strong_imperial_style_01.iff	0	1824	128.243	1081.86	1	0	0	0		$|
2666221	0	object/static/structure/corellia/corl_imprv_wall_4x16_s03.iff	0	1783.99	128.151	1073.6	0.973666	0	-0.227978	0		$|
2666222	0	object/static/structure/military/military_column_strong_imperial_style_01.iff	0	1791.93	128.348	1077.61	1	0	0	0		$|
2666223	0	object/static/structure/corellia/corl_imprv_wall_4x32_s03.iff	0	1762.47	128	1077.13	0.971338	0	0.237703	0		$|
2666224	0	object/static/structure/military/military_column_strong_imperial_style_01.iff	0	1776.27	128.527	1070.31	1	0	0	0		$|
2666225	0	object/static/structure/corellia/corl_imprv_wall_4x32_s03.iff	0	1682.08	128.021	1037.63	-0.700285	0	0.713863	0		$|
2666226	0	object/static/structure/corellia/corl_imprv_wall_4x16_s03.iff	0	1740.36	128	1086.72	0.990901	0	0.13459	0		$|
2666227	0	object/static/structure/corellia/corl_imprv_wall_4x16_s03.iff	0	1723.71	128	1088.16	0.998988	0	-0.0449852	0		$|
2666228	0	object/static/structure/corellia/corl_imprv_wall_4x16_s03.iff	0	1707.73	128	1084.83	0.987227	0	-0.159318	0		$|
2666229	0	object/static/structure/corellia/corl_imprv_wall_4x16_s03.iff	0	1694.19	128	1076.13	0.919102	0	-0.394019	0		$|
2666230	0	object/static/structure/corellia/corl_imprv_wall_4x16_s03.iff	0	1684.94	127.95	1062.07	0.836463	0	-0.548024	0		$|
2666231	0	object/static/structure/corellia/corl_imprv_wall_4x16_s03.iff	0	1674.73	128	1016.28	0.256311	0	0.966594	0		$|
2666232	0	object/static/structure/military/military_column_strong_imperial_style_01.iff	0	1682.24	128.368	1021.04	0.3043	0	0.952576	0		$|
2666233	0	object/static/structure/military/military_column_strong_imperial_style_01.iff	0	1754.89	128.288	1073.09	0.962425	0	0.271547	0		$|
2666234	0	object/static/structure/military/military_column_strong_imperial_style_01.iff	0	1739.31	128.346	1078.5	0.992198	0	0.124675	0		$|
2666235	0	object/static/structure/military/military_column_strong_imperial_style_01.iff	0	1715.29	128.483	1087.22	0.993956	0	-0.109778	0		$|
2666236	0	object/static/structure/military/military_column_strong_imperial_style_01.iff	0	1700.54	128.29	1082.2	1	0	0	0		$|
2666237	0	object/static/structure/military/military_column_strong_imperial_style_01.iff	0	1688.69	128.285	1070.31	0.96639	0	0.257081	0		$|
2666238	0	object/static/structure/military/military_column_strong_imperial_style_01.iff	0	1681.82	128.348	1053.97	1	0	0	0		$|
2666239	0	object/building/military/military_outpost_guard_tower_1.iff	0	1657.33	128.001	1009.07	0.900447	0	0.434966	0		$|
3055845	0	object/tangible/terminal/terminal_mission_bounty.iff	0	1856.07	120	932.488	0.714143	0	0.7	0		$|
3135352	0	object/static/structure/military/military_wall_strong_imperial_16_style_01.iff	0	2002.33	128	921.295	0.319309	0	0.947651	0		$|
3135353	0	object/static/structure/military/military_wall_strong_imperial_32_style_01.iff	0	2015.19	128	941.142	0.552199	0	0.833712	0		$|
3135354	0	object/static/structure/military/military_wall_strong_imperial_16_style_01.iff	0	1988.46	128.005	912.955	0.213348	0	0.976977	0		$|
3135356	0	object/static/structure/military/military_wall_strong_imperial_32_style_01.iff	0	2005.23	128	1004.57	0.90687	0	0.42141	0		$|
3135359	0	object/static/structure/corellia/corl_imprv_wall_4x16_s03.iff	0	1993.14	128	1026.51	0.979061	0	0.203568	0		$|
3135360	0	object/static/structure/corellia/corl_imprv_wall_4x16_s03.iff	0	2007.34	128	1018.53	0.953847	0	0.300294	0		$|
3135361	0	object/static/structure/corellia/corl_imprv_wall_4x16_s03.iff	0	2019.14	128	1006.72	0.889293	0	0.457339	0		$|
3135362	0	object/static/structure/military/military_wall_strong_imperial_32_style_01.iff	0	1971.29	128	1022.5	0.996802	0	0.0799141	0		$|
3135363	0	object/static/structure/military/military_wall_strong_imperial_16_style_01.iff	0	1947.25	128	1023.9	0.996802	0	-0.0799149	0		$|
3135366	0	object/static/structure/military/military_wall_strong_imperial_16_style_01.iff	0	1925.94	128	1033.25	0.911039	0	0.41232	0		$|
3135367	0	object/static/structure/military/military_wall_strong_imperial_16_style_01.iff	0	1915.32	128	1045.76	0.904752	0	0.425939	0		$|
3135368	0	object/static/structure/military/military_wall_strong_imperial_16_style_01.iff	0	1901.88	128	1053.7	0.995491	0	0.0948566	0		$|
3135369	0	object/static/structure/military/military_wall_strong_imperial_16_style_01.iff	0	1885.57	128	1056	0.99955	0	0.0299949	0		$|
3135370	0	object/static/structure/military/military_wall_strong_imperial_16_style_01.iff	0	1869.36	127.854	1055.32	0.997551	0	-0.0699432	0		$|
3135371	0	object/static/structure/military/military_wall_strong_imperial_32_style_01.iff	0	1846.69	128	1061.98	0.970137	0	0.242556	0		$|
3135372	0	object/static/structure/military/military_wall_strong_imperial_32_style_01.iff	0	1815.98	128	1069.36	0.99995	0	-0.0100003	0		$|
3135373	0	object/static/structure/military/military_wall_strong_imperial_16_style_01.iff	0	1792.03	128	1066.19	0.984726	0	-0.174108	0		$|
3135374	0	object/static/structure/military/military_wall_strong_imperial_16_style_01.iff	0	1776.06	128	1062.86	0.999388	0	-0.0349926	0		$|
3135375	0	object/static/structure/military/military_wall_strong_imperial_16_style_01.iff	0	1761.15	128	1067.75	0.941075	0	0.338197	0		$|
3135376	0	object/static/structure/military/military_wall_strong_imperial_16_style_01.iff	0	1746.94	128	1075.84	0.985585	0	0.169183	0		$|
3135377	0	object/static/structure/military/military_wall_strong_imperial_16_style_01.iff	0	1731.15	128	1079.88	0.996802	0	0.0799154	0		$|
3135378	0	object/static/structure/military/military_wall_strong_imperial_16_style_01.iff	0	1715.35	128	1077.93	0.980067	0	-0.198668	0		$|
3135379	0	object/static/structure/military/military_wall_strong_imperial_16_style_01.iff	0	1702.59	128	1068.32	0.893822	0	-0.448422	0		$|
3135380	0	object/static/structure/military/military_wall_strong_imperial_16_style_01.iff	0	1694.77	128	1054.12	0.825336	0	-0.564642	0		$|
3135381	0	object/static/structure/military/military_wall_strong_imperial_16_style_01.iff	0	1691.18	128	1037.91	0.724837	0	-0.68892	0		$|
3135382	0	object/static/structure/military/military_wall_strong_imperial_16_style_01.iff	0	1693.22	128	1022.02	-0.589788	0	0.807558	0		$|
3135383	0	object/static/structure/military/military_wall_strong_imperial_16_style_01.iff	0	1687.99	128	1010.2	0.981048	0	-0.193766	0		$|
3135384	0	object/static/structure/military/military_wall_strong_imperial_16_style_01.iff	0	1672.97	128	1004.01	0.981048	0	-0.193766	0		$|
3135385	0	object/static/structure/military/military_wall_strong_imperial_16_style_01.iff	0	1660.48	127.925	993.896	0.884675	0	-0.466208	0		$|
3135386	0	object/static/structure/military/military_wall_strong_imperial_16_style_01.iff	0	1653.15	128	979.443	0.810963	0	-0.585097	0		$|
3135387	0	object/static/structure/military/military_wall_strong_imperial_16_style_01.iff	0	1652.23	128	963.454	-0.621611	0	0.783327	0		$|
3135388	0	object/static/structure/military/military_wall_strong_imperial_16_style_01.iff	0	1659.71	128	949.238	-0.39934	0	0.916803	0		$|
3135389	0	object/static/structure/military/military_wall_strong_imperial_16_style_01.iff	0	1672.05	128	937.833	-0.329522	0	0.944148	0		$|
3135390	0	object/static/structure/military/military_wall_strong_imperial_style_01.iff	0	1683.34	128	930.459	-0.219007	0	0.975723	0		$|
3135391	0	object/static/structure/military/military_wall_strong_imperial_16_style_01.iff	0	1704.16	128	873.712	-0.403919	0	0.914795	0		$|
3135392	0	object/static/structure/military/military_wall_strong_imperial_16_style_01.iff	0	1693.23	127.972	905.213	-0.671178	0	0.741296	0		$|
3135393	0	object/static/structure/military/military_wall_strong_imperial_style_01.iff	0	1691.86	128	918.313	-0.659985	0	0.751279	0		$|
3135394	0	object/static/structure/military/military_wall_strong_imperial_style_01.iff	0	1694.48	128	892.296	-0.663733	0	0.747969	0		$|
3135395	0	object/static/structure/military/military_wall_strong_imperial_style_01.iff	0	1711.55	128	863.53	-0.540304	0	0.84147	0		$|
3135396	0	object/static/structure/military/military_wall_strong_imperial_16_style_01.iff	0	1705.47	128	844.461	0.886995	0	-0.461779	0		$|
3135397	0	object/static/structure/military/military_wall_strong_imperial_16_style_01.iff	0	1694.68	128	812.813	-0.693111	0	0.720831	0		$|
3135398	0	object/static/structure/military/military_wall_strong_imperial_style_01.iff	0	1694.73	128	825.315	0.728272	0	-0.685288	0		$|
3135399	0	object/static/structure/military/military_wall_strong_imperial_style_01.iff	0	1697.85	128	833.787	0.886995	0	-0.461779	0		$|
3135400	0	object/static/structure/military/military_wall_strong_imperial_16_style_01.iff	0	1700.33	127.711	797.979	-0.435682	0	0.900101	0		$|
3135401	0	object/static/structure/military/military_wall_strong_imperial_16_style_01.iff	0	1712.28	127.722	786.911	-0.281921	0	0.959438	0		$|
3135402	0	object/static/structure/military/military_wall_strong_imperial_16_style_01.iff	0	1727.51	128	780.84	-0.105599	0	0.994409	0		$|
3135403	0	object/static/structure/military/military_wall_strong_imperial_16_style_01.iff	0	1743.18	128	782.198	0.183164	0	0.983083	0		$|
3135404	0	object/static/structure/military/military_wall_strong_imperial_16_style_01.iff	0	1756.85	128	790.785	0.365532	0	0.930799	0		$|
3135405	0	object/static/structure/military/military_wall_strong_imperial_16_style_01.iff	0	1768.98	128.013	801.813	0.351529	0	0.936177	0		$|
3135406	0	object/static/structure/military/military_wall_strong_imperial_32_style_01.iff	0	1790.64	128	802.772	-0.13459	0	0.990901	0		$|
3135408	0	object/static/structure/military/military_wall_strong_imperial_style_01.iff	0	1810.33	128	797.852	-0.0657488	0	0.997836	0		$|
3135409	0	object/static/structure/military/military_wall_strong_imperial_32_style_01.iff	0	1861.32	128	805.648	-0.054972	0	0.998487	0		$|
3135410	0	object/static/structure/military/military_wall_strong_imperial_16_style_01.iff	0	1822.51	128	800.022	0.158532	0	0.987354	0		$|
3135411	0	object/static/structure/military/military_wall_strong_imperial_style_01.iff	0	1834.13	128	804.283	0.197888	0	0.980224	0		$|
3135412	0	object/static/structure/corellia/corl_stair_medium_s01.iff	0	1837.28	119.923	828.044	0.995004	0	-0.0998332	0		$|
3135415	0	object/static/structure/corellia/corl_imprv_bridge_sm_s01.iff	0	1839.86	127.776	815.303	0.995004	0	-0.0998333	0		$|
3135416	0	object/static/structure/corellia/corl_imprv_bridge_insert_s01.iff	0	1838.28	127.776	823.144	0.995004	0	-0.0998333	0		$|
3135480	0	object/static/structure/military/military_wall_strong_imperial_32_style_01.iff	0	1914.78	128.001	853.013	0.706832	0	0.70738	0		$|
3135481	0	object/static/structure/military/military_wall_strong_imperial_16_style_01.iff	0	1884.9	128	807.569	0.227202	0	0.973848	0		$|
3135482	0	object/static/structure/military/military_wall_strong_imperial_16_style_01.iff	0	1898.42	127.953	816.718	0.365531	0	0.930799	0		$|
3135483	0	object/static/structure/military/military_wall_strong_imperial_16_style_01.iff	0	1909.38	128	829.172	0.461073	0	0.887362	0		$|
3135486	0	object/static/structure/military/military_wall_strong_imperial_16_style_01.iff	0	1921.64	128	874.38	0.280393	0	0.959886	0		$|
3135487	0	object/static/structure/military/military_wall_strong_imperial_16_style_01.iff	0	1934.29	128	884.742	0.393287	0	0.919416	0		$|
3135488	0	object/static/structure/military/military_wall_strong_imperial_16_style_01.iff	0	1944.67	128	897.606	0.465504	0	0.885046	0		$|
3135489	0	object/static/structure/military/military_wall_strong_imperial_16_style_01.iff	0	1957.55	128	906.559	0.123884	0	0.992297	0		$|
3135490	0	object/static/structure/military/military_wall_strong_imperial_16_style_01.iff	0	1973.27	128	909.138	0.0341966	0	0.999415	0		$|
3135492	0	object/static/structure/military/military_column_strong_imperial_style_01.iff	0	2018.11	127.995	963.662	1	0	0	0		$|
3135493	0	object/static/structure/military/military_column_strong_imperial_style_01.iff	0	2011.53	128	969.722	1	0	0	0		$|
3135494	0	object/static/structure/military/military_column_strong_imperial_style_01.iff	0	2010.08	128	977.873	1	0	0	0		$|
3135495	0	object/static/structure/military/military_column_strong_imperial_style_01.iff	0	2017.37	128	983.499	1	0	0	0		$|
3135496	0	object/static/structure/military/military_column_strong_imperial_style_01.iff	0	2015.86	128	992.289	1	0	0	0		$|
3135497	0	object/static/structure/military/military_column_strong_imperial_style_01.iff	0	1994.51	128.868	1016.73	1	0	0	0		$|
3135498	0	object/static/structure/military/military_column_strong_imperial_style_01.iff	0	1987.12	128.817	1020.18	1	0	0	0		$|
3135499	0	object/static/structure/military/military_column_strong_imperial_style_01.iff	0	1955.24	128	1025.09	1	0	0	0		$|
3135500	0	object/static/structure/military/military_column_strong_imperial_style_01.iff	0	1938.72	128	1022.59	1	0	0	0		$|
3135501	0	object/static/structure/military/military_column_strong_imperial_style_01.iff	0	2021.35	128	956.11	0.9992	0	-0.0399893	0		$|
3135502	0	object/static/structure/military/military_column_strong_imperial_style_01.iff	0	2008.87	128	926.282	0.99639	0	-0.0848975	0		$|
3135503	0	object/static/structure/military/military_column_strong_imperial_style_01.iff	0	1995.92	128	916.265	0.994493	0	0.104807	0		$|
3135504	0	object/static/structure/military/military_column_strong_imperial_style_01.iff	0	1981.15	128	909.873	0.993956	0	-0.109778	0		$|
3135505	0	object/static/structure/military/military_column_strong_imperial_style_01.iff	0	1965.29	128	908.655	0.99639	0	-0.0848975	0		$|
3135506	0	object/static/structure/military/military_column_strong_imperial_style_01.iff	0	1949.49	128	904.37	0.315322	0	0.948985	0		$|
3135507	0	object/static/structure/military/military_column_strong_imperial_style_01.iff	0	1939.95	128	890.794	0.440177	0	0.897911	0		$|
3135508	0	object/static/structure/military/military_column_strong_imperial_style_01.iff	0	1928.5	128	878.991	0.310574	0	0.950549	0		$|
3135509	0	object/static/structure/military/military_column_strong_imperial_style_01.iff	0	1914.65	128	869.6	0.667463	0	0.744643	0		$|
3135510	0	object/static/structure/military/military_column_strong_imperial_style_01.iff	0	1914.65	128	836.298	0.52762	0	0.84948	0		$|
3135511	0	object/static/structure/military/military_column_strong_imperial_style_01.iff	0	1904.56	128	822.389	0.728271	0	0.685289	0		$|
3135512	0	object/static/structure/military/military_column_strong_imperial_style_01.iff	0	1892.33	128	811.055	0.609791	0	0.792562	0		$|
3135513	0	object/static/structure/military/military_column_strong_imperial_style_01.iff	0	1877.53	128	803.843	0.11057	0	0.993868	0		$|
3135514	0	object/static/structure/military/military_column_strong_imperial_style_01.iff	0	1844.6	128	807.357	0.0956501	0	0.995415	0		$|
3135515	0	object/static/structure/military/military_column_strong_imperial_style_01.iff	0	1838.49	128	806.129	0.1056	0	0.994409	0		$|
3135516	0	object/static/structure/military/military_column_strong_imperial_style_01.iff	0	1830.43	128	802.468	0.830941	0	0.556361	0		$|
3135517	0	object/static/structure/military/military_column_strong_imperial_style_01.iff	0	1814.6	128	797.351	0.0557676	0	0.998444	0		$|
3135518	0	object/static/structure/military/military_column_strong_imperial_style_01.iff	0	1806.32	128	798.462	-0.108986	0	0.994043	0		$|
3135519	0	object/static/structure/military/military_column_strong_imperial_style_01.iff	0	1775.07	128	806.767	0.075724	0	0.997129	0		$|
3135520	0	object/static/structure/military/military_column_strong_imperial_style_01.iff	0	1762.75	128	796.406	0.390152	0	0.92075	0		$|
3135521	0	object/static/structure/military/military_column_strong_imperial_style_01.iff	0	1750.95	128	785.177	0.291502	0	0.95657	0		$|
3135522	0	object/static/structure/military/military_column_strong_imperial_style_01.iff	0	1735.54	128	779.24	0.0457806	0	0.998952	0		$|
3135523	0	object/static/structure/military/military_column_strong_imperial_style_01.iff	0	1719.31	128	782.483	-0.104015	0	0.994576	0		$|
3135524	0	object/static/structure/military/military_column_strong_imperial_style_01.iff	0	1705.34	128	791.482	-0.402461	0	0.915437	0		$|
3135525	0	object/static/structure/military/military_column_strong_imperial_style_01.iff	0	1695.2	128	804.563	-0.580387	0	0.814341	0		$|
3135526	0	object/static/structure/military/military_column_strong_imperial_style_01.iff	0	1694.36	128	821.053	0.713863	0	-0.700285	0		$|
3135527	0	object/static/structure/military/military_column_strong_imperial_style_01.iff	0	1695.09	128	830.068	0.8499	0	-0.526943	0		$|
3135528	0	object/static/structure/military/military_column_strong_imperial_style_01.iff	0	1700.54	128	837.48	0.884675	0	-0.466209	0		$|
3135529	0	object/static/structure/military/military_column_strong_imperial_style_01.iff	0	1710.25	128	851.394	0.857709	0	-0.514136	0		$|
3135530	0	object/static/structure/military/military_column_strong_imperial_style_01.iff	0	1713.44	128	859.61	-0.706262	0	0.707951	0		$|
3135531	0	object/static/structure/military/military_column_strong_imperial_style_01.iff	0	1709.62	128	867.511	-0.429739	0	0.902953	0		$|
3135532	0	object/static/structure/military/military_column_strong_imperial_style_01.iff	0	1698.64	128	880.228	-0.447711	0	0.894178	0		$|
3135533	0	object/static/structure/military/military_column_strong_imperial_style_01.iff	0	1694.96	128	887.922	-0.629412	0	0.777072	0		$|
3135534	0	object/static/structure/military/military_column_strong_imperial_style_01.iff	0	1693.96	128	896.717	-0.674876	0	0.737931	0		$|
3135535	0	object/static/structure/military/military_column_strong_imperial_style_01.iff	0	1692.4	128	913.539	0.77341	0	-0.633906	0		$|
3135536	0	object/static/structure/military/military_column_strong_imperial_style_01.iff	0	1691.17	128	923.162	-0.440177	0	0.897911	0		$|
3135537	0	object/static/structure/military/military_column_strong_imperial_style_01.iff	0	1687.56	128	928.342	-0.44771	0	0.894179	0		$|
3135538	0	object/static/structure/military/military_column_strong_imperial_style_01.iff	0	1679.01	128	932.367	-0.202787	0	0.979223	0		$|
3135539	0	object/static/structure/military/military_column_strong_imperial_style_01.iff	0	1665.41	128	943.118	-0.346843	0	0.937923	0		$|
3135540	0	object/static/structure/military/military_column_strong_imperial_style_01.iff	0	1654.08	128	955.38	-0.530511	0	0.847678	0		$|
3135541	0	object/static/structure/military/military_column_strong_imperial_style_01.iff	0	1650.45	128	971.629	0.727179	0	-0.686448	0		$|
3135542	0	object/static/structure/military/military_column_strong_imperial_style_01.iff	0	1655.9	128	987.075	0.851691	0	-0.524045	0		$|
3135543	0	object/static/structure/military/military_column_strong_imperial_style_01.iff	0	1665.16	128	1000.76	0.945525	0	-0.32555	0		$|
3135544	0	object/static/structure/military/military_column_strong_imperial_style_01.iff	0	1695.79	128	1013.7	0.846408	0	-0.532535	0		$|
3135545	0	object/static/structure/military/military_column_strong_imperial_style_01.iff	0	1690.81	128	1029.92	-0.639773	0	0.768564	0		$|
3135546	0	object/static/structure/military/military_column_strong_imperial_style_01.iff	0	1691.59	128	1046.26	0.77341	0	-0.633906	0		$|
3135547	0	object/static/structure/military/military_column_strong_imperial_style_01.iff	0	1697.68	128	1062.06	0.879211	0	-0.476433	0		$|
3135548	0	object/static/structure/military/military_column_strong_imperial_style_01.iff	0	1707.83	128	1074.94	0.964674	0	-0.263446	0		$|
3135549	0	object/static/structure/military/military_column_strong_imperial_style_01.iff	0	1723.15	128	1081.19	0.999646	0	-0.0265898	0		$|
3135550	0	object/static/structure/military/military_column_strong_imperial_style_01.iff	0	1767.86	128	1062.56	0.989735	0	0.142916	0		$|
3135551	0	object/static/structure/military/military_column_strong_imperial_style_01.iff	0	1784.24	128	1063.54	0.992617	0	-0.121293	0		$|
3135552	0	object/static/structure/military/military_column_strong_imperial_style_01.iff	0	1799.71	128	1069.11	0.992617	0	-0.121294	0		$|
3135553	0	object/static/structure/military/military_column_strong_imperial_style_01.iff	0	1832.33	128	1069.79	0.995641	0	0.0932712	0		$|
3135554	0	object/static/structure/military/military_column_strong_imperial_style_01.iff	0	1861.06	128	1054.44	0.994658	0	0.103223	0		$|
3135555	0	object/static/structure/military/military_column_strong_imperial_style_01.iff	0	1877.51	128	1056.53	0.999978	0	-0.00659295	0		$|
3135556	0	object/static/structure/military/military_column_strong_imperial_style_01.iff	0	1893.8	128	1055.46	0.995162	0	0.0982483	0		$|
3135557	0	object/static/structure/military/military_column_strong_imperial_style_01.iff	0	1931.32	128	1027.05	0.950796	0	0.309816	0		$|
3135558	0	object/static/structure/military/military_column_strong_imperial_style_01.iff	0	1920.46	128	1039.39	0.90687	0	0.42141	0		$|
3135559	0	object/static/structure/military/military_column_strong_imperial_style_01.iff	0	1909.93	128	1052.05	0.956802	0	0.29074	0		$|
3135560	0	object/static/structure/military/military_column_strong_imperial_style_01.iff	0	1917.46	128.27	1059.19	0.995004	0	0.0998333	0		$|
3135561	0	object/static/structure/military/military_column_strong_imperial_style_01.iff	0	1938.01	128.264	1034.37	1	0	0	0		$|
3135562	0	object/static/structure/military/military_column_strong_imperial_style_01.iff	0	1953.98	128.338	1035.04	1	0	0	0		$|
3135563	0	object/static/structure/military/military_column_strong_imperial_style_01.iff	0	1985.8	128.348	1029.66	0.988012	0	0.15438	0		$|
3135564	0	object/static/structure/military/military_column_strong_imperial_style_01.iff	0	2000.56	128.308	1023.24	0.961055	0	0.276356	0		$|
3135565	0	object/static/structure/military/military_column_strong_imperial_style_01.iff	0	2013.89	128.453	1013.96	0.908966	0	0.416871	0		$|
3135567	0	object/static/structure/military/military_column_strong_imperial_style_01.iff	0	1731.82	128.281	1089	0.999388	0	0.0349932	0		$|
3135568	0	object/static/structure/military/military_column_strong_imperial_style_01.iff	0	1667.21	128.368	1012.16	0.3043	0	0.952576	0		$|
3135570	0	object/static/structure/military/military_wall_weak_imperial_style_01.iff	0	1663.01	128	1010	0.978031	0	-0.20846	0		$|
3135571	0	object/static/structure/military/military_wall_weak_imperial_style_01.iff	0	1655.27	128	1003.98	0.90687	0	-0.42141	0		$|
3135572	0	object/static/structure/military/military_column_strong_imperial_style_01.iff	0	1652.35	128.286	1000.63	0.411595	0	0.911367	0		$|
3135573	0	object/static/structure/corellia/corl_imprv_wall_4x16_s03.iff	0	1648.63	128	992.749	0.530511	0	0.847677	0		$|
3135574	0	object/static/structure/corellia/corl_imprv_wall_4x16_s03.iff	0	1642.76	128	976.257	0.608527	0	0.793532	0		$|
3135575	0	object/static/structure/military/military_column_strong_imperial_style_01.iff	0	1644.92	128.286	984.695	0.496189	0	0.868215	0		$|
3135576	0	object/static/structure/corellia/corl_imprv_wall_4x16_s03.iff	0	1641.55	127.985	958.96	0.744117	0	0.668049	0		$|
3135577	0	object/static/structure/military/military_column_strong_imperial_style_01.iff	0	1640.51	128.286	967.609	0.647426	0	0.762128	0		$|
3135578	0	object/static/structure/corellia/corl_imprv_wall_4x16_s03.iff	0	1647.59	127.874	942.867	0.881584	0	0.472028	0		$|
3135579	0	object/static/structure/military/military_column_strong_imperial_style_01.iff	0	1642.68	128.286	950.061	0.81003	0	0.586389	0		$|
3135580	0	object/static/structure/corellia/corl_imprv_wall_4x16_s03.iff	0	1659.66	127.922	930.79	0.957788	0	0.287476	0		$|
3135581	0	object/static/structure/military/military_column_strong_imperial_style_01.iff	0	1652.33	128.286	935.502	0.910381	0	0.413772	0		$|
3135582	0	object/static/structure/corellia/corl_imprv_wall_4x16_s03.iff	0	1673.81	128	922.296	0.96598	0	0.258618	0		$|
3135583	0	object/static/structure/military/military_column_strong_imperial_style_01.iff	0	1666.22	128.286	926.561	0.922382	0	0.386278	0		$|
3135584	0	object/static/structure/corellia/corl_imprv_wall_4x16_s03.iff	0	1681.65	128	909.307	0.727195	0	0.686431	0		$|
3135585	0	object/static/structure/military/military_column_strong_imperial_style_01.iff	0	1681.05	128.286	917.997	0.628174	0	0.778073	0		$|
3135586	0	object/static/structure/corellia/corl_imprv_wall_4x16_s03.iff	0	1683.39	127.942	891.7	0.750762	0	0.660573	0		$|
3135587	0	object/static/structure/military/military_column_strong_imperial_style_01.iff	0	1682.19	128.286	900.326	0.655016	0	0.755615	0		$|
3135588	0	object/static/structure/military/military_column_strong_imperial_style_01.iff	0	1684.55	128.264	883.7	0.655016	0	0.755615	0		$|
3135589	0	object/static/structure/military/military_column_strong_imperial_style_01.iff	0	1701.93	128.338	857.029	0.655016	0	0.755615	0		$|
3135590	0	object/static/structure/corellia/corl_imprv_wall_4x16_s03.iff	0	1682.15	128	822.143	0.706267	0	0.707945	0		$|
3135591	0	object/static/structure/military/military_column_strong_imperial_style_01.iff	0	1682.07	128.344	830.851	0.604552	0	0.796565	0		$|
3135592	0	object/static/structure/corellia/corl_imprv_wall_4x16_s03.iff	0	1684.04	128	804.834	0.782839	0	0.622225	0		$|
3135593	0	object/static/structure/military/military_column_strong_imperial_style_01.iff	0	1681.99	128.344	813.296	0.691962	0	0.721934	0		$|
3135594	0	object/building/military/military_outpost_guard_tower_1.iff	0	1689.83	128	786.189	0.939373	0	-0.342897	0		$|
3135595	0	object/static/structure/military/military_column_strong_imperial_style_01.iff	0	1686.45	128.368	795.975	0.895345	0	0.445374	0		$|
3135596	0	object/static/structure/military/military_wall_weak_imperial_style_01.iff	0	1688.73	128	791.845	-0.531861	0	0.846832	0		$|
3135597	0	object/static/structure/military/military_wall_weak_imperial_style_01.iff	0	1694.99	128	784.283	-0.32952	0	0.944148	0		$|
3135598	0	object/static/structure/military/military_column_strong_imperial_style_01.iff	0	1698.42	128.286	781.463	0.940535	0	0.339696	0		$|
3135599	0	object/static/structure/military/military_column_strong_imperial_style_01.iff	0	1713.81	128.344	772.979	-0.377773	0	0.925898	0		$|
3135600	0	object/static/structure/corellia/corl_imprv_wall_4x16_s03.iff	0	1706.14	128	777.106	-0.249707	0	0.968321	0		$|
3135601	0	object/static/structure/military/military_column_strong_imperial_style_01.iff	0	1730.57	128.344	768.235	-0.267499	0	0.963558	0		$|
3135602	0	object/static/structure/corellia/corl_imprv_wall_4x16_s03.iff	0	1722.15	128	770.481	-0.135368	0	0.990795	0		$|
3135603	0	object/static/structure/military/military_column_strong_imperial_style_01.iff	0	1747.61	128.344	771.805	-0.0357892	0	0.999359	0		$|
3135604	0	object/static/structure/corellia/corl_imprv_wall_4x16_s03.iff	0	1739.09	128	769.995	0.0990524	0	0.995082	0		$|
3135605	0	object/static/structure/military/military_column_strong_imperial_style_01.iff	0	1762.7	128.344	780.824	0.128844	0	0.991665	0		$|
3135606	0	object/static/structure/corellia/corl_imprv_wall_4x16_s03.iff	0	1755.23	128	776.353	0.261152	0	0.965298	0		$|
3135607	0	object/static/structure/military/military_column_strong_imperial_style_01.iff	0	1775.58	128.33	792.666	0.232068	0	0.9727	0		$|
3135608	0	object/static/structure/corellia/corl_imprv_wall_4x16_s03.iff	0	1769.2	128	786.734	0.360884	0	0.932611	0		$|
3135609	0	object/static/structure/corellia/corl_imprv_wall_4x32_s03.iff	0	1791.31	127.632	789.093	-0.120503	0	0.992713	0		$|
3135610	0	object/static/structure/military/military_column_strong_imperial_style_01.iff	0	1807.43	128.344	785.419	0.997307	0	-0.0733419	0		$|
3135611	0	object/static/structure/corellia/corl_imprv_wall_4x16_s03.iff	0	1816.29	128.002	784.758	-0.035777	0	0.99936	0		$|
3135612	0	object/static/structure/military/military_column_strong_imperial_style_01.iff	0	1824.98	128.292	784.23	-0.169968	0	0.98545	0		$|
3135613	0	object/static/structure/corellia/corl_imprv_wall_4x32_s03.iff	0	1825.72	128	769.305	0.720278	0	0.693685	0		$|
3135614	0	object/static/structure/corellia/corl_imprv_wall_4x32_s03.iff	0	1826.81	128	739.36	0.720284	0	0.693679	0		$|
3135615	0	object/static/structure/military/military_column_strong_imperial_style_01.iff	0	1826.23	128.292	754.342	0.0242007	0	0.999708	0		$|
3135616	0	object/static/structure/military/military_column_strong_imperial_style_01.iff	0	1827.49	128.089	724.469	0.0291992	0	0.999574	0		$|
3135621	0	object/static/structure/corellia/corl_imprv_wall_4x32_s03.iff	0	1892.89	128	741.701	0.709805	0	0.704398	0		$|
3135622	0	object/static/structure/military/military_column_strong_imperial_style_01.iff	0	1892.83	128.262	757.007	0.00920319	0	0.999959	0		$|
3135623	0	object/static/structure/corellia/corl_imprv_wall_4x32_s03.iff	0	1892.71	128	771.969	0.7098	0	0.704403	0		$|
3135624	0	object/static/structure/military/military_column_strong_imperial_style_01.iff	0	1892.41	128.275	786.91	-0.0357894	0	0.99936	0		$|
3135626	0	object/static/structure/corellia/corl_imprv_gate_sm_s03.iff	0	1843.69	128	791.348	0.999688	0	0.0249968	0		$|
3135627	0	object/static/structure/corellia/corl_imprv_wall_4x16_s03.iff	0	1831.15	128.018	787.538	0.241795	0	0.970328	0		$|
3135628	0	object/static/structure/military/military_column_strong_imperial_style_01.iff	0	1838.73	128.421	791.501	0.999987	0	0.00500059	0		$|
3135629	0	object/static/structure/military/military_column_strong_imperial_style_01.iff	0	1848.64	128.245	791.128	0.999887	0	0.0150003	0		$|
3135630	0	object/static/structure/corellia/corl_imprv_wall_4x16_s03.iff	0	1855.56	128	792.725	0.993485	0	-0.113967	0		$|
3135631	0	object/static/structure/military/military_column_strong_imperial_style_01.iff	0	1878.64	128.245	793.726	0.992198	0	0.124676	0		$|
3135632	0	object/static/structure/corellia/corl_imprv_wall_4x16_s03.iff	0	1885.56	128	790.304	0.974619	0	0.223872	0		$|
3135633	0	object/static/structure/corellia/corl_imprv_wall_4x16_s03.iff	0	1870.9	128	794.04	0.999668	0	0.0257827	0		$|
3135634	0	object/static/structure/military/military_column_strong_imperial_style_01.iff	0	1863.17	128.245	794.415	0.994493	0	0.104808	0		$|
3135635	0	object/building/military/military_outpost_guard_tower_1.iff	0	1870.43	128	793.823	0.68892	0	0.724838	0		$|
3135636	0	object/static/structure/corellia/corl_imprv_wall_4x16_s03.iff	0	1896.45	128	794.951	0.522696	0	0.852519	0		$|
3135637	0	object/static/structure/military/military_column_strong_imperial_style_01.iff	0	1900.01	128.245	801.813	0.605819	0	0.795602	0		$|
3135640	0	object/building/military/military_outpost_guard_house_imperial.iff	0	1886.33	128.006	734.971	1	0	0.0003963	0		$|
3135641	3135640	object/cell/cell.iff	1	0	0	0	1	0	0	0		$|
3135642	3135640	object/cell/cell.iff	2	0	0	0	1	0	0	0		$|
3135646	0	object/static/structure/military/military_column_strong_imperial_style_01.iff	0	1863	128.41	724.573	1	0	0	0		$|
3135647	0	object/static/structure/military/military_column_strong_imperial_style_01.iff	0	1844.93	128.245	724.569	1	0	0	0		$|
3135648	0	object/static/structure/corellia/corl_imprv_wall_4x16_s03.iff	0	1853.96	128	724.537	1	0	0	0		$|
3135650	0	object/static/structure/corellia/corl_imprv_wall_4x16_s03.iff	0	1835.82	128	724.566	1	0	0	0		$|
3135656	0	object/static/structure/corellia/corl_imprv_wall_4x16_s03.iff	0	1906.21	128	808.232	0.384818	0	0.922992	0		$|
3135657	0	object/static/structure/military/military_column_strong_imperial_style_01.iff	0	1911.68	128.099	813.682	0.475731	0	0.87959	0		$|
3135660	0	object/static/structure/corellia/corl_imprv_wall_4x16_s03.iff	0	1926.71	128	853.824	-0.686437	0	0.72719	0		$|
3135661	0	object/static/structure/military/military_column_strong_imperial_style_01.iff	0	1926.03	128.245	862.787	-0.488872	0	0.872355	0		$|
3135662	0	object/static/structure/corellia/corl_imprv_wall_4x16_s03.iff	0	1916.99	128	820.761	0.891924	0	-0.452185	0		$|
3135663	0	object/static/structure/military/military_column_strong_imperial_style_01.iff	0	1922.17	128.245	828.024	0.748502	0	-0.663133	0		$|
3135664	0	object/static/structure/corellia/corl_imprv_wall_4x16_s03.iff	0	1924.67	128	836.457	0.808491	0	-0.588508	0		$|
3135665	0	object/static/structure/military/military_column_strong_imperial_style_01.iff	0	1927.3	128.245	844.983	-0.63329	0	0.773914	0		$|
3135667	0	object/static/structure/military/military_column_strong_imperial_style_01.iff	0	1963.88	128.245	895.995	0.275588	0	0.961276	0		$|
3135668	0	object/static/structure/corellia/corl_imprv_wall_4x16_s03.iff	0	1955.74	128	892.366	0.202797	0	0.979221	0		$|
3135669	0	object/static/structure/military/military_column_strong_imperial_style_01.iff	0	1947.92	128.245	888.533	0.727729	0	-0.685865	0		$|
3135670	0	object/static/structure/corellia/corl_imprv_wall_4x32_s03.iff	0	1980.87	127.995	897.59	0.0441937	0	0.999023	0		$|
3135671	0	object/static/structure/corellia/corl_imprv_wall_4x32_s03.iff	0	1937.05	128	875.736	0.416151	0	0.909296	0		$|
3135672	0	object/static/structure/military/military_column_strong_imperial_style_01.iff	0	2010	128.245	912.162	0.456628	0	0.889658	0		$|
3135673	0	object/static/structure/corellia/corl_imprv_wall_4x16_s03.iff	0	2003.85	128	905.712	0.388694	0	0.921367	0		$|
3135674	0	object/static/structure/military/military_column_strong_imperial_style_01.iff	0	1997.61	128.245	899.141	-0.352279	0	0.935895	0		$|
3135675	0	object/static/structure/corellia/corl_imprv_wall_4x16_s03.iff	0	2031.19	128.028	948.41	0.658793	0	0.752324	0		$|
3135676	0	object/static/structure/military/military_column_strong_imperial_style_01.iff	0	2030.03	128.245	939.442	-0.0549774	0	0.998488	0		$|
3135677	0	object/static/structure/corellia/corl_imprv_wall_4x16_s03.iff	0	2028.2	128	992.828	-0.498253	0	0.867032	0		$|
3135678	0	object/static/structure/military/military_column_strong_imperial_style_01.iff	0	2024.38	128.217	999.433	0.87029	0	0.492539	0		$|
3135679	0	object/static/structure/corellia/corl_imprv_wall_4x16_s03.iff	0	2038.24	128	981.52	-0.316067	0	0.948737	0		$|
3135680	0	object/static/structure/corellia/corl_imprv_wall_4x16_s03.iff	0	2038.01	128.004	962.651	0.387961	0	0.921676	0		$|
3135681	0	object/static/structure/military/military_column_strong_imperial_style_01.iff	0	2032.03	128.317	986.175	0.896051	0	0.443952	0		$|
3135682	0	object/static/structure/military/military_column_strong_imperial_style_01.iff	0	2043.96	129.074	977.574	1	0	0	0		$|
3135683	0	object/static/structure/military/military_column_strong_imperial_style_01.iff	0	2043.96	129.028	968.744	0.707109	0	0.707105	0		$|
3135684	0	object/static/structure/military/military_column_strong_imperial_style_01.iff	0	2032.47	128.334	956.582	0.501898	0	0.864927	0		$|
3135691	0	object/static/structure/corellia/corl_imprv_wall_4x16_s03.iff	0	2003.83	128	905.654	0.387961	0	0.921676	0		$|
3295352	0	object/static/structure/dathomir/imp_prison.iff	0	1872	120	850	1	0	0	0		$|
3295353	0	object/static/structure/dathomir/imp_prison.iff	0	1802	120	840	1	0	0	0		$|
3295354	0	object/static/structure/corellia/corl_imprv_wall_4x16_s03.iff	0	1772.18	120	871.418	0.92388	0	-0.382683	0		$|
3295356	0	object/static/structure/corellia/corl_imprv_wall_4x16_s03.iff	0	1819.62	120	867.034	0.707106	0	0.707107	0		$|
3295357	0	object/static/structure/corellia/corl_imprv_wall_4x16_s03.iff	0	1811.78	120	876.349	0.997888	0	0.0649542	0		$|
3295358	0	object/static/structure/corellia/corl_imprv_wall_4x16_s03.iff	0	1786.72	120	877.383	1	0	0	0		$|
3295359	0	object/static/structure/corellia/corl_imprv_gate_sm_s03.iff	0	1770.56	120	862.933	0.92388	0	0.382683	0		$|
3295360	0	object/static/structure/corellia/corl_imprv_wall_4x16_s03.iff	0	1763.99	120	858.047	0.815213	0	-0.579161	0		$|
3295361	0	object/static/structure/dathomir/imp_prison.iff	0	1732.58	120	821.755	0.707107	0	0.707107	0		$|
3295362	0	object/static/structure/corellia/corl_imprv_wall_4x16_s03.iff	0	1761.41	120	841.245	0.709012	0	-0.705197	0		$|
3295363	0	object/static/structure/corellia/corl_imprv_wall_4x16_s03.iff	0	1753.19	120	833.02	0.00690285	0	0.999976	0		$|
3295364	0	object/static/structure/corellia/corl_imprv_wall_4x16_s03.iff	0	1775.54	120.824	818.189	0.707108	0	0.707105	0		$|
3295365	0	object/static/structure/corellia/corl_imprv_gate_sm_s03.iff	0	1883.95	120	883.676	0.996983	0	0.077621	0		$|
3295366	0	object/static/structure/corellia/corl_imprv_gate_sm_s03.iff	0	1868.55	120	980.717	0.994324	0	0.106391	0		$|
3295367	0	object/static/structure/corellia/corl_imprv_wall_4x16_s03.iff	0	1895.57	120	879.742	0.979607	0	0.200924	0		$|
3295368	0	object/static/structure/corellia/corl_imprv_wall_4x16_s03.iff	0	1903.42	120	836.424	0.812307	0	-0.583231	0		$|
3295369	0	object/static/structure/corellia/corl_imprv_wall_4x16_s03.iff	0	1894.01	120	823.273	0.946785	0	-0.321868	0		$|
3295370	0	object/static/structure/corellia/corl_imprv_wall_4x32_s03.iff	0	1871.17	120	817.185	0.999331	0	-0.0365855	0		$|
3295371	0	object/static/structure/corellia/corl_imprv_wall_4x16_s03.iff	0	1854.33	120	823.784	0.72325	0	0.690586	0		$|
3295372	0	object/static/structure/corellia/corl_imprv_wall_4x16_s03.iff	0	1847.01	120	833.382	0.420047	0	0.907502	0		$|
3295375	0	object/static/structure/corellia/corl_imprv_wall_4x16_s04.iff	0	1843.11	120	816.643	-0.621298	0	0.783574	0		$|
3295376	0	object/static/structure/corellia/corl_imprv_wall_4x16_s04.iff	0	1836.63	120	815.349	-0.632981	0	0.774167	0		$|
3295377	0	object/static/structure/military/military_column_strong_imperial_style_01.iff	0	1854.63	120.225	815.969	0.09565	0	0.995415	0		$|
3295378	0	object/static/structure/military/military_column_strong_imperial_style_01.iff	0	1842.52	120.158	828.005	0.0557675	0	0.998444	0		$|
3295379	0	object/static/structure/military/military_column_strong_imperial_style_01.iff	0	1833.13	120.327	822.541	0.060759	0	0.998152	0		$|
3295380	0	object/static/structure/military/military_column_strong_imperial_style_01.iff	0	1906.1	120.276	844.782	-0.104015	0	0.994576	0		$|
3295381	0	object/static/structure/military/military_column_strong_imperial_style_01.iff	0	1902.41	120.253	876.364	0.09565	0	0.995415	0		$|
3295382	0	object/static/structure/military/military_column_strong_imperial_style_01.iff	0	1888.89	120.255	882.889	-0.0591689	0	0.998248	0		$|
3295383	0	object/static/structure/military/military_column_strong_imperial_style_01.iff	0	1879.14	120.285	884.287	-0.0092034	0	0.999958	0		$|
3295384	0	object/static/structure/military/military_column_strong_imperial_style_01.iff	0	1846.61	120.285	884.3	0.37166	0	0.928369	0		$|
3295385	0	object/static/structure/military/military_column_strong_imperial_style_01.iff	0	1819.64	120.221	875.349	-0.0441892	0	0.999023	0		$|
3295386	0	object/static/structure/military/military_column_strong_imperial_style_01.iff	0	1804.22	120.244	877.412	0.020795	0	0.999784	0		$|
3295387	0	object/static/structure/military/military_column_strong_imperial_style_01.iff	0	1900.97	120.311	828.76	-0.0092034	0	0.999958	0		$|
3295388	0	object/static/structure/military/military_column_strong_imperial_style_01.iff	0	1887.42	120.317	818.628	0.09565	0	0.995415	0		$|
3295389	0	object/static/structure/military/military_column_strong_imperial_style_01.iff	0	1794.6	120.253	877.357	-0.00920339	0	0.999958	0		$|
3295390	0	object/static/structure/military/military_column_strong_imperial_style_01.iff	0	1778.45	120.253	876.981	0.184729	0	0.982789	0		$|
3295391	0	object/static/structure/military/military_column_strong_imperial_style_01.iff	0	1767.21	120.328	866.284	0.714424	0	0.699713	0		$|
3295392	0	object/static/structure/military/military_column_strong_imperial_style_01.iff	0	1774.03	120.285	859.484	-0.374821	0	0.927097	0		$|
3295393	0	object/static/structure/military/military_column_strong_imperial_style_01.iff	0	1761.57	120.253	850.012	0.700284	0	0.713863	0		$|
3295394	0	object/static/structure/military/military_column_strong_imperial_style_01.iff	0	1761.43	120.222	833.219	-0.379451	0	0.925211	0		$|
3295395	0	object/static/structure/military/military_column_strong_imperial_style_01.iff	0	1775.57	121.054	810.03	0.00579645	0	0.999983	0		$|
3295396	0	object/static/structure/corellia/corl_imprv_wall_4x32_s03.iff	0	1759.36	120.884	810.087	1	0	0	0		$|
3295397	0	object/static/structure/dathomir/imp_prison.iff	0	1812.71	120	1028.42	-0.0998333	0	0.995004	0		$|
3295398	0	object/static/structure/dathomir/imp_prison.iff	0	1884.32	120	1015.32	-0.099833	0	0.995004	0		$|
3295399	0	object/static/structure/corellia/corl_imprv_wall_4x16_s03.iff	0	1846.98	120	1000.42	0.76382	0	0.645429	0		$|
3295400	0	object/static/structure/corellia/corl_imprv_wall_4x32_s03.iff	0	1791.55	120	993.431	0.994493	0	0.104808	0		$|
3295401	0	object/static/structure/corellia/corl_imprv_wall_4x32_s03.iff	0	1848.02	120	1024.66	0.755093	0	-0.655617	0		$|
3295404	0	object/static/structure/military/military_column_strong_imperial_style_01.iff	0	1873.25	120.316	979.808	0.993956	0	0.109778	0		$|
3295405	0	object/static/structure/military/military_column_strong_imperial_style_01.iff	0	1863.92	120.324	981.863	0.988771	0	0.149438	0		$|
3295406	0	object/static/structure/military/military_column_strong_imperial_style_01.iff	0	1847.42	120.316	983.551	0.999687	0	0.0249971	0		$|
3295407	0	object/static/structure/military/military_column_strong_imperial_style_01.iff	0	1848.02	120.197	992.907	0.99995	0	0.00999953	0		$|
3295408	0	object/static/structure/military/military_column_strong_imperial_style_01.iff	0	1845.81	120.221	1008.3	0.99955	0	0.0299952	0		$|
3295409	0	object/static/structure/military/military_column_strong_imperial_style_01.iff	0	1850.37	120.253	1040.57	0.990216	0	0.139543	0		$|
3295410	0	object/static/structure/military/military_column_strong_imperial_style_01.iff	0	1866.38	120.329	1044.13	0.998988	0	-0.0449851	0		$|
3295411	0	object/static/structure/military/military_column_strong_imperial_style_01.iff	0	1898.73	120.316	1045.41	0.975897	0	0.218229	0		$|
3295412	0	object/static/structure/military/military_column_strong_imperial_style_01.iff	0	1816.04	120.253	988.393	0.997551	0	0.0699425	0		$|
3295413	0	object/static/structure/military/military_column_strong_imperial_style_01.iff	0	1806.74	120.221	990.23	0.993956	0	0.109778	0		$|
3295414	0	object/static/structure/military/military_column_strong_imperial_style_01.iff	0	1776.25	120.285	997.131	-0.44771	0	0.894179	0		$|
3295415	0	object/static/structure/military/military_column_strong_imperial_style_01.iff	0	1775.27	120.285	1028.91	0.989506	0	0.144492	0		$|
3295416	0	object/static/structure/military/military_column_strong_imperial_style_01.iff	0	1789.49	120.293	1057.64	0.988011	0	-0.15438	0		$|
3295417	0	object/static/structure/military/military_column_strong_imperial_style_01.iff	0	1821.38	120.259	1055.86	0.987227	0	0.159318	0		$|
3295418	0	object/building/military/military_base_shed_imperial_style_01.iff	0	1793.87	120	958.667	-0.703564	0	0.710632	0		$|
3295419	3295418	object/cell/cell.iff	1	0	0	0	1	0	0	0		$|
3295420	3295418	object/cell/cell.iff	2	0	0	0	1	0	0	0		$|
3295421	3295418	object/cell/cell.iff	3	0	0	0	1	0	0	0		$|
3295422	3295418	object/cell/cell.iff	4	0	0	0	1	0	0	0		$|
3295423	3295418	object/cell/cell.iff	5	0	0	0	1	0	0	0		$|
3295424	3295418	object/cell/cell.iff	6	0	0	0	1	0	0	0		$|
3295425	0	object/building/military/military_base_shed_imperial_style_01.iff	0	1793.99	120	943.427	-0.703564	0	0.710632	0		$|
3295426	3295425	object/cell/cell.iff	1	0	0	0	1	0	0	0		$|
3295427	3295425	object/cell/cell.iff	2	0	0	0	1	0	0	0		$|
3295428	3295425	object/cell/cell.iff	3	0	0	0	1	0	0	0		$|
3295429	3295425	object/cell/cell.iff	4	0	0	0	1	0	0	0		$|
3295430	3295425	object/cell/cell.iff	5	0	0	0	1	0	0	0		$|
3295431	3295425	object/cell/cell.iff	6	0	0	0	1	0	0	0		$|
3295432	0	object/static/structure/corellia/corl_imprv_wall_4x32_s04.iff	0	1703.4	121.093	931.518	0.953847	0	-0.300293	0		$|
3295433	0	object/static/structure/corellia/corl_imprv_wall_4x32_s04.iff	0	1699.45	121.093	936.767	0.953847	0	-0.300293	0		$|
3295434	0	object/static/structure/corellia/corl_imprv_wall_4x16_s03.iff	0	1753.11	120	1022.92	0.893821	0	-0.448423	0		$|
3295435	0	object/static/structure/military/military_column_strong_imperial_style_01.iff	0	1747.72	120.375	1016.49	0.972514	0	-0.232843	0		$|
3295436	0	object/static/structure/corellia/corl_imprv_wall_4x16_s03.iff	0	1759.29	120	1038.54	0.71442	0	-0.699717	0		$|
3295437	0	object/static/structure/military/military_column_strong_imperial_style_01.iff	0	1758.63	120.375	1030.17	0.855127	0	-0.518418	0		$|
3295438	0	object/static/structure/corellia/corl_imprv_wall_4x16_s03.iff	0	1755	119.94	1054.82	-0.462485	0	0.886627	0		$|
3295439	0	object/static/structure/military/military_column_strong_imperial_style_01.iff	0	1759.4	120.178	1047.68	-0.652438	0	0.757843	0		$|
3295440	0	object/static/structure/corellia/corl_imprv_wall_4x16_s03.iff	0	1742.63	119.757	1066.27	-0.238476	0	0.971148	0		$|
3295441	0	object/static/structure/military/military_column_strong_imperial_style_01.iff	0	1749.83	120.284	1061.97	-0.453596	0	0.891207	0		$|
3295442	0	object/static/structure/corellia/corl_imprv_wall_4x16_s03.iff	0	1727.07	119.648	1069.11	0.0591689	0	0.998248	0		$|
3295443	0	object/static/structure/corellia/corl_imprv_wall_4x16_s03.iff	0	1700.77	119.661	1035.3	-0.648639	0	0.761095	0		$|
3295444	0	object/static/structure/corellia/corl_imprv_wall_4x16_s03.iff	0	1702.58	119.636	1050.72	0.833713	0	-0.552198	0		$|
3295445	0	object/static/structure/corellia/corl_imprv_wall_4x16_s03.iff	0	1712.31	119.62	1063.24	0.31381	0	0.949485	0		$|
3295446	0	object/static/structure/corellia/corl_imprv_wall_4x16_s03.iff	0	1708.1	119.818	1021.21	-0.390151	0	0.92075	0		$|
3295447	0	object/static/structure/corellia/corl_imprv_wall_4x16_s03.iff	0	1721.31	119.883	1013.04	-0.165038	0	0.986287	0		$|
3295449	0	object/static/structure/military/military_column_strong_imperial_style_01.iff	0	1699.57	120	1043.27	0.972514	0	-0.232843	0		$|
3295450	0	object/static/structure/military/military_column_strong_imperial_style_01.iff	0	1705.85	119.904	1058.49	0.972514	0	-0.232843	0		$|
3295451	0	object/static/structure/military/military_column_strong_imperial_style_01.iff	0	1728.98	120.129	1010.45	0.972514	0	-0.232843	0		$|
3295452	0	object/static/structure/military/military_column_strong_imperial_style_01.iff	0	1702.52	120.046	1026.78	0.972514	0	-0.232843	0		$|
3295453	0	object/static/structure/military/military_column_strong_imperial_style_01.iff	0	1713.58	120.117	1015.68	0.972514	0	-0.232843	0		$|
3295454	0	object/static/structure/military/military_column_strong_imperial_style_01.iff	0	1719.17	119.968	1068.36	0.972514	0	-0.232843	0		$|
3295455	0	object/static/structure/military/military_column_strong_imperial_style_01.iff	0	1735.73	120	1070.08	0.972514	0	-0.232843	0		$|
3295457	0	object/static/structure/military/military_column_strong_imperial_style_01.iff	0	1697.69	120.289	941.355	-0.617686	0	0.786425	0		$|
3295458	0	object/static/structure/corellia/corl_imprv_wall_4x16_s03.iff	0	1674.4	120	946.891	-0.310575	0	0.950549	0		$|
3295459	0	object/static/structure/military/military_column_strong_imperial_style_01.iff	0	1680.96	120.289	942.255	-0.617686	0	0.786425	0		$|
3295460	0	object/static/structure/military/military_column_strong_imperial_style_01.iff	0	1711.02	120.497	949.575	-0.617686	0	0.786425	0		$|
3295461	0	object/static/structure/corellia/corl_imprv_wall_4x16_s03.iff	0	1715.36	120	956.504	0.48311	0	0.87556	0		$|
3295462	0	object/static/structure/corellia/corl_imprv_wall_4x16_s03.iff	0	1704.39	120	945.516	0.265963	0	0.963982	0		$|
3295463	0	object/static/structure/military/military_column_strong_imperial_style_01.iff	0	1719.64	120.289	963.373	-0.617686	0	0.786425	0		$|
3295464	0	object/static/structure/corellia/corl_imprv_wall_4x16_s03.iff	0	1713.02	119.889	989.722	-0.422133	0	0.906534	0		$|
3295465	0	object/static/structure/military/military_column_strong_imperial_style_01.iff	0	1718.04	120.289	983.002	-0.617686	0	0.786425	0		$|
3295466	0	object/static/structure/corellia/corl_imprv_wall_4x16_s03.iff	0	1699.23	120.055	999.306	-0.125462	0	0.992099	0		$|
3295467	0	object/static/structure/military/military_column_strong_imperial_style_01.iff	0	1707.22	120.413	996.751	-0.348337	0	0.937369	0		$|
3295468	0	object/static/structure/corellia/corl_imprv_wall_4x16_s03.iff	0	1682.4	120.025	998.857	0.188077	0	0.982154	0		$|
3295469	0	object/static/structure/military/military_column_strong_imperial_style_01.iff	0	1690.36	120.289	1001.51	-0.0407844	0	0.999168	0		$|
3295470	0	object/static/structure/military/military_column_strong_imperial_style_01.iff	0	1674.26	120.289	995.455	0.197888	0	0.980224	0		$|
3295471	0	object/static/structure/corellia/corl_imprv_wall_4x16_s03.iff	0	1689	120	941.608	-0.0357889	0	0.999359	0		$|
3295472	0	object/static/structure/corellia/corl_imprv_wall_4x16_s03.iff	0	1664.44	120	959.23	0.83559	0	0.549353	0		$|
3295473	0	object/static/structure/corellia/corl_imprv_wall_4x16_s03.iff	0	1668.42	120	989.43	0.416146	0	0.909297	0		$|
3295474	0	object/static/structure/corellia/corl_imprv_wall_4x16_s03.iff	0	1662.09	120	974.937	0.666276	0	0.745705	0		$|
3295475	0	object/static/structure/military/military_column_strong_imperial_style_01.iff	0	1667.58	120.289	951.851	-0.617686	0	0.786425	0		$|
3295476	0	object/static/structure/military/military_column_strong_imperial_style_01.iff	0	1661.02	120.289	967.073	-0.617686	0	0.786425	0		$|
3295477	0	object/static/structure/military/military_column_strong_imperial_style_01.iff	0	1663.13	120.289	983.589	-0.617686	0	0.786425	0		$|
3295478	0	object/static/structure/corellia/corl_imprv_wall_4x16_s03.iff	0	1744.44	120	873.001	0.318554	0	0.947905	0		$|
3295479	0	object/static/structure/military/military_column_strong_imperial_style_01.iff	0	1750.87	120.289	877.922	0.748499	0	-0.663136	0		$|
3295480	0	object/static/structure/corellia/corl_imprv_wall_4x16_s03.iff	0	1755.58	120	885.532	0.48311	0	0.87556	0		$|
3295481	0	object/static/structure/military/military_column_strong_imperial_style_01.iff	0	1759.86	120.289	892.401	-0.617686	0	0.786425	0		$|
3295482	0	object/static/structure/corellia/corl_imprv_wall_4x16_s03.iff	0	1758.54	120	901.612	0.760577	0	0.649248	0		$|
3295483	0	object/static/structure/military/military_column_strong_imperial_style_01.iff	0	1757.22	120.289	909.6	-0.301053	0	0.953607	0		$|
3295484	0	object/static/structure/corellia/corl_imprv_wall_4x16_s03.iff	0	1752.42	120	917.17	0.869506	0	0.493922	0		$|
3295485	0	object/static/structure/military/military_column_strong_imperial_style_01.iff	0	1748.24	120.289	924.105	-0.115538	0	0.993303	0		$|
3295486	0	object/static/structure/corellia/corl_imprv_wall_4x16_s03.iff	0	1707.59	120	920.984	0.332736	0	0.94302	0		$|
3295487	0	object/static/structure/military/military_column_strong_imperial_style_01.iff	0	1713.87	120.289	926.096	0.738469	0	-0.674288	0		$|
3295488	0	object/static/structure/corellia/corl_imprv_wall_4x16_s03.iff	0	1722.22	120	928.429	0.133801	0	0.991008	0		$|
3295489	0	object/static/structure/military/military_column_strong_imperial_style_01.iff	0	1730.02	120.289	930.613	0.860269	0	-0.509841	0		$|
3295490	0	object/static/structure/military/military_column_strong_imperial_style_01.iff	0	1700.57	120.692	915.213	0.738469	0	-0.674287	0		$|
3295491	0	object/static/structure/corellia/corl_imprv_wall_4x16_s03.iff	0	1729.22	120	867.452	0.0341968	0	0.999415	0		$|
3295492	0	object/static/structure/military/military_column_strong_imperial_style_01.iff	0	1737.3	120.289	868.045	0.90687	0	-0.421411	0		$|
3295493	0	object/static/structure/military/military_column_strong_imperial_style_01.iff	0	1720.45	120.318	866.922	0.90687	0	-0.421411	0		$|
3295498	0	object/static/structure/military/military_wall_strong_imperial_32_style_01.iff	0	1977.15	117.286	967.649	0.994493	0	-0.104807	0		$|
3295499	0	object/static/structure/military/military_wall_strong_imperial_32_style_01.iff	0	1984.24	117.286	934.396	0.104807	0	0.994493	0		$|
3295500	0	object/static/structure/military/military_wall_strong_imperial_32_style_01.iff	0	1997.32	117.286	954.566	0.777323	0	0.629102	0		$|
3295501	0	object/static/structure/military/military_wall_strong_imperial_16_style_01.iff	0	1961.47	117.286	935.678	-0.283747	0	0.958899	0		$|
3295502	0	object/static/structure/military/military_wall_strong_imperial_16_style_01.iff	0	1956.89	117.286	957.194	0.878683	0	-0.477405	0		$|
3295503	0	object/static/structure/military/military_column_strong_imperial_style_01.iff	0	1952.27	120	950.075	0.104807	0	0.994493	0		$|
3295504	0	object/static/structure/military/military_column_strong_imperial_style_01.iff	0	1954.35	120	940.295	0.104807	0	0.994493	0		$|
3295505	0	object/static/structure/military/military_column_strong_imperial_style_01.iff	0	1961.51	120	964.313	0.994493	0	-0.104807	0		$|
3295506	0	object/static/structure/military/military_column_strong_imperial_style_01.iff	0	1968.59	120	931.06	0.104807	0	0.994493	0		$|
3295507	0	object/static/structure/military/military_column_strong_imperial_style_01.iff	0	1993.78	120	971.192	0.994493	0	-0.104807	0		$|
3295508	0	object/static/structure/military/military_column_strong_imperial_style_01.iff	0	2000.87	120	937.939	0.477405	0	0.878683	0		$|
3295509	0	object/static/structure/military/military_column_strong_imperial_style_01.iff	0	1936.51	116.097	946.493	0.104807	0	0.994493	0		$|
3295510	0	object/static/structure/military/military_column_strong_imperial_style_01.iff	0	1938.59	116.097	936.713	0.104807	0	0.994493	0		$|
3295511	0	object/static/structure/military/military_column_strong_imperial_style_01.iff	0	1915.91	116.097	941.922	0.0848975	0	0.99639	0		$|
3295512	0	object/static/structure/military/military_column_strong_imperial_style_01.iff	0	1917.6	116.097	932.066	0.0848975	0	0.99639	0		$|
3295513	0	object/static/structure/military/military_column_strong_imperial_style_01.iff	0	1893.69	116.097	938.197	0.0599638	0	0.998201	0		$|
3295514	0	object/static/structure/military/military_column_strong_imperial_style_01.iff	0	1894.88	116.097	928.269	0.0599638	0	0.998201	0		$|
3295515	0	object/static/structure/military/military_column_strong_imperial_style_01.iff	0	1871.66	116.097	934.007	0.0199984	0	0.9998	0		$|
3295516	0	object/static/structure/military/military_column_strong_imperial_style_01.iff	0	1872.06	116.097	924.014	0.0199984	0	0.9998	0		$|
3295532	0	object/static/structure/military/military_column_strong_imperial_style_01.iff	0	1748.19	128.285	1084.37	-0.189641	0	0.981853	0		$|
4685462	0	object/static/structure/general/tato_cave_rock_med.iff	0	1734.86	112.504	904.015	1	0	0	0		$|
4685463	0	object/static/structure/general/tato_cave_rock_med.iff	0	1735.83	112.466	903.665	-0.509773	0.488978	0.524881	-0.474902		$|
4685464	0	object/static/structure/general/tato_cave_rock_med.iff	0	1736.43	112.346	902.338	0.731689	0	0	0.681638		$|
4685465	0	object/static/structure/general/trash_pile_s01.iff	0	1738.97	112.179	902.836	1	0	0	0		$|
4685466	0	object/static/item/item_container_inorganic_minerals.iff	0	1738.97	112.032	900.709	1	0	0	0		$|
4685467	0	object/static/item/item_container_inorganic_minerals.iff	0	1736.89	112.008	899.523	0.99639	0	-0.0848977	0		$|
4685468	0	object/static/structure/tatooine/debris_tatt_drum_dented_1.iff	0	1739.37	112.05	898.6	0.934124	0	-0.356949	0		$|
4685469	0	object/static/structure/tatooine/debris_tatt_drum_dented_1.iff	0	1734.49	112.047	901.352	-0.514819	0	0.857299	0		$|
4685472	0	object/static/structure/general/streetlamp_medium_style_01.iff	0	1720.12	112	883.851	0.908966	0	0.416871	0		$|
4685473	0	object/static/structure/general/streetlamp_medium_style_01.iff	0	1714.08	112	891.453	0.900447	0	0.434966	0		$|
4685474	0	object/static/structure/general/streetlamp_medium_style_01.iff	0	1737.69	111.98	903.458	0.898261	0	0.439463	0		$|
4685480	0	object/static/structure/tatooine/debris_tatt_drum_dented_1.iff	0	1733.66	112.182	904.55	0.0491838	0	0.99879	0		$|
4685484	0	object/static/structure/military/military_column_strong_imperial_style_01.iff	0	1690.21	121.892	970.771	0.707107	0	0.707107	0		$|
4685485	0	object/static/item/item_bowl_shallow.iff	0	1690.19	127.083	970.77	1	0	0	0		$|
4685486	0	object/static/structure/general/campfire_fresh.iff	0	1690.18	127.124	970.802	1	0	0	0		$|
4685493	0	object/static/structure/tatooine/concrete_slab_tatooine_16x8.iff	0	1690.07	113.885	970.723	1	0	0	0		$|
4685510	0	object/static/structure/military/military_column_strong_imperial_style_01.iff	0	1730.31	114.12	1042.18	0.105202	0	0.994451	0		$|
4685511	0	object/static/item/item_bowl_shallow.iff	0	1730.3	119.313	1042.21	0.777573	0	0.628792	0		$|
4685512	0	object/static/structure/general/campfire_fresh.iff	0	1730.33	119.357	1042.22	0.777573	0	0.628792	0		$|
4685513	0	object/static/structure/tatooine/concrete_slab_tatooine_16x8.iff	0	1730.23	105.993	1042.31	0.777573	0	0.628792	0		$|
4865404	0	object/tangible/terminal/terminal_bazaar.iff	0	1878.06	120	874.381	1	0	0	0		$|
4865405	0	object/tangible/terminal/terminal_bazaar.iff	0	1865.9	120	874.396	1	0	0	0		$|
5335764	0	object/building/military/military_base_shed_imperial_style_prison_01.iff	0	1883.44	128	767.991	-0.707107	0	0.707107	0		$|
5335765	5335764	object/cell/cell.iff	1	0	0	0	1	0	0	0		$|
5335766	5335764	object/cell/cell.iff	2	0	0	0	1	0	0	0		$|
5335767	5335764	object/cell/cell.iff	3	0	0	0	1	0	0	0		$|
5335768	5335764	object/cell/cell.iff	4	0	0	0	1	0	0	0		$|
5335769	5335764	object/cell/cell.iff	5	0	0	0	1	0	0	0		$|
5335770	5335764	object/cell/cell.iff	6	0	0	0	1	0	0	0		$|
5335771	0	object/building/military/military_base_shed_imperial_style_prison_01.iff	0	1883.45	128	751.876	-0.707107	0	0.707107	0	theme_park.dungeon.generic_spawner	spawn_table|4|datatables/spawning/poi_spawner/dathomir/dath_imp_prison_cell.iff|$|
5335772	5335771	object/cell/cell.iff	1	0	0	0	1	0	0	0		$|
5335773	5335771	object/cell/cell.iff	2	0	0	0	1	0	0	0		$|
5335774	5335771	object/cell/cell.iff	3	0	0	0	1	0	0	0		$|
5335775	5335771	object/cell/cell.iff	4	0	0	0	1	0	0	0		$|
4355509	5335775	object/tangible/dungeon/corellian_corvette/corvette_search_rebel_destroy_03.iff	4	2.38425	0.125266	0.0371531	0.822276	0	0.569089	0		$|
5335776	5335771	object/cell/cell.iff	5	0	0	0	1	0	0	0		$|
5335777	5335771	object/cell/cell.iff	6	0	0	0	1	0	0	0		$|
5335778	0	object/building/military/military_base_shed_imperial_style_prison_01.iff	0	1861.88	128	768.068	0.707107	0	0.707107	0		$|
5335779	5335778	object/cell/cell.iff	1	0	0	0	1	0	0	0		$|
5335780	5335778	object/cell/cell.iff	2	0	0	0	1	0	0	0		$|
5335781	5335778	object/cell/cell.iff	3	0	0	0	1	0	0	0		$|
5335782	5335778	object/cell/cell.iff	4	0	0	0	1	0	0	0		$|
5335783	5335778	object/cell/cell.iff	5	0	0	0	1	0	0	0		$|
5335784	5335778	object/cell/cell.iff	6	0	0	0	1	0	0	0		$|
5335785	0	object/building/military/military_base_shed_imperial_style_prison_01.iff	0	1861.88	128	752.006	0.707108	0	0.707106	0		$|
5335786	5335785	object/cell/cell.iff	1	0	0	0	1	0	0	0		$|
5335787	5335785	object/cell/cell.iff	2	0	0	0	1	0	0	0		$|
5335788	5335785	object/cell/cell.iff	3	0	0	0	1	0	0	0		$|
5335789	5335785	object/cell/cell.iff	4	0	0	0	1	0	0	0		$|
5335790	5335785	object/cell/cell.iff	5	0	0	0	1	0	0	0		$|
5335791	5335785	object/cell/cell.iff	6	0	0	0	1	0	0	0		$|
5335792	0	object/building/military/military_base_shed_imperial_style_prison_01.iff	0	1861.89	128	736.109	0.707107	0	0.707107	0		$|
5335793	5335792	object/cell/cell.iff	1	0	0	0	1	0	0	0		$|
5335794	5335792	object/cell/cell.iff	2	0	0	0	1	0	0	0		$|
5335795	5335792	object/cell/cell.iff	3	0	0	0	1	0	0	0		$|
5335796	5335792	object/cell/cell.iff	4	0	0	0	1	0	0	0		$|
5335797	5335792	object/cell/cell.iff	5	0	0	0	1	0	0	0		$|
5335798	5335792	object/cell/cell.iff	6	0	0	0	1	0	0	0		$|
5335799	0	object/building/military/military_base_shed_imperial_style_prison_01.iff	0	1837.7	128	735.332	0.707107	0	0.707107	0		$|
5335800	5335799	object/cell/cell.iff	1	0	0	0	1	0	0	0		$|
5335801	5335799	object/cell/cell.iff	2	0	0	0	1	0	0	0		$|
5335802	5335799	object/cell/cell.iff	3	0	0	0	1	0	0	0		$|
5335803	5335799	object/cell/cell.iff	4	0	0	0	1	0	0	0		$|
5335804	5335799	object/cell/cell.iff	5	0	0	0	1	0	0	0		$|
5335805	5335799	object/cell/cell.iff	6	0	0	0	1	0	0	0		$|
5335806	0	object/building/military/military_base_shed_imperial_style_prison_01.iff	0	1837.71	128	751.401	0.707107	0	0.707107	0		$|
5335807	5335806	object/cell/cell.iff	1	0	0	0	1	0	0	0		$|
5335808	5335806	object/cell/cell.iff	2	0	0	0	1	0	0	0		$|
5335809	5335806	object/cell/cell.iff	3	0	0	0	1	0	0	0		$|
5335810	5335806	object/cell/cell.iff	4	0	0	0	1	0	0	0		$|
4355510	5335810	object/tangible/dungeon/corellian_corvette/corvette_search_rebel_rescue_02.iff	4	2.35618	0.125266	-0.0536095	-3.20013e-08	0	1	0		$|
5335811	5335806	object/cell/cell.iff	5	0	0	0	1	0	0	0		$|
5335812	5335806	object/cell/cell.iff	6	0	0	0	1	0	0	0		$|
5335813	0	object/building/military/military_base_shed_imperial_style_prison_01.iff	0	1837.75	128	767.377	0.707107	0	0.707107	0		$|
5335814	5335813	object/cell/cell.iff	1	0	0	0	1	0	0	0		$|
5335815	5335813	object/cell/cell.iff	2	0	0	0	1	0	0	0		$|
5335816	5335813	object/cell/cell.iff	3	0	0	0	1	0	0	0		$|
5335817	5335813	object/cell/cell.iff	4	0	0	0	1	0	0	0		$|
5335818	5335813	object/cell/cell.iff	5	0	0	0	1	0	0	0		$|
5335819	5335813	object/cell/cell.iff	6	0	0	0	1	0	0	0		$|
6915353	0	object/static/structure/general/tato_cave_rock_large.iff	0	1715.42	112	887.652	1	0	0	0		$|
6915354	0	object/static/structure/general/tato_cave_rock_large.iff	0	1704.43	126.713	876.01	1	0	0	0		$|
8195879	0	object/static/structure/corellia/corl_stair_medium_s01.iff	0	1718.19	120.055	946.035	0.889292	0	0.457339	0		$|
8195881	0	object/static/structure/corellia/corl_imprv_bridge_insert_s01.iff	0	1714.13	127.793	943.122	0.889292	0	0.457339	0		$|
8195882	0	object/static/structure/corellia/corl_imprv_bridge_lg_s01.iff	0	1702.49	127.798	934.974	0.886995	0	0.461779	0		$|
8505356	0	object/static/vehicle/static_lambda_shuttle.iff	0	1977.32	120	949.414	0.741831	0	-0.670587	0		$|
8505360	0	object/static/structure/corellia/corl_imprv_wall_4x16_s03.iff	0	1871.94	128	724.602	1	0	0	0		$|
8525361	0	object/tangible/terminal/terminal_mission_imperial.iff	0	1856.05	120	922.319	0.707107	0	0.707106	0		$|
8525366	0	object/static/structure/general/streetlamp_small_red_style_01.iff	0	1992.02	120	968.608	0.993956	0	-0.109778	0		$|
8525367	0	object/static/structure/general/streetlamp_small_red_style_01.iff	0	1962.73	120	962.75	0.90261	0	0.430458	0		$|
8525368	0	object/static/structure/general/streetlamp_small_red_style_01.iff	0	1968.98	120	932.924	0.992809	0	0.119713	0		$|
8525369	0	object/static/structure/general/streetlamp_small_red_style_01.iff	0	1997.92	120	939.654	0.991562	0	-0.129634	0		$|
8575544	0	object/static/structure/corellia/corl_imprv_wall_4x16_s03.iff	0	1885.24	128	724.616	1	0	0	0		$|
8575545	0	object/static/structure/military/military_column_strong_imperial_style_01.iff	0	1878.47	128	724.501	1	0	0	0		$|
8575546	0	object/static/structure/military/military_column_strong_imperial_style_01.iff	0	1892.92	128	724.758	1	0	0	0		$|
8575547	0	object/static/structure/general/streetlamp_small_style_02.iff	0	1880.91	133.374	733.767	0.674842	-0.00737919	0.00674865	0.737894		$|
8575548	0	object/static/structure/general/streetlamp_small_style_02.iff	0	1881.47	133.222	739.693	0.628983	0.230823	0.266257	0.69297		$|
8575549	0	object/static/structure/general/streetlamp_small_style_02.iff	0	1887.26	133.28	740.736	0.481709	0.46203	0.515887	0.536977		$|
9725352	0	object/static/structure/general/streetlamp_large_red_style_01.iff	0	2045.4	128	977.648	0.724836	0	0.688922	0		$|
9725355	0	object/static/structure/general/streetlamp_large_red_style_01.iff	0	2045.51	128	968.844	0.724834	0	0.688924	0		$|
9725578	0	object/static/structure/tatooine/skeleton_krayt_ribcage.iff	0	1068.57	461.369	1174.92	0.93569	0.0753845	0.337515	-0.0698958		$|
9725594	0	object/static/flora/flora_tree_rori_windswept_s00.iff	0	1070.74	458.239	1172.71	0.714421	0	-0.699716	0		$|
9725595	0	object/static/flora/flora_tree_rori_windswept_s00.iff	0	1068.22	458.986	1170.72	0.0207949	0	0.999784	0		$|
9725596	0	object/static/flora/flora_tree_rori_windswept_s00.iff	0	1066.16	459.506	1172.72	0.998975	0.0449842	-0.00499492	-0.000224923		$|
9725597	0	object/static/flora/flora_tree_rori_windswept_s00.iff	0	1065.78	459.345	1178.26	0.892427	-0.227874	-0.389399	0.00389411		$|
9725598	0	object/static/structure/tatooine/pillar_pristine_small_style_01.iff	0	1069.49	460.864	1174.13	0.627649	0.665954	-0.293412	0.276535		$|
9725599	0	object/static/structure/tatooine/pillar_pristine_small_style_01.iff	0	1067.84	461.761	1175.62	-0.662843	0.629999	0.27877	0.293303		$|
9725608	0	object/static/structure/general/streetlamp_small_green_style_01.iff	0	1068.34	461.094	1174.67	1	0	0	0		$|
9725610	0	object/building/endor/endor_tiki_torch.iff	0	1072.45	460.926	1176.56	1	0	0	0		$|
9725611	0	object/static/structure/general/skeleton_human_head.iff	0	1072.46	462.43	1176.55	0.947651	0	0.319309	0		$|
9725614	0	object/static/flora/flora_decd_dath_blacktree.iff	0	1073.99	463.185	1171.05	-0.495491	-0.0799621	0.853877	-0.137798		$|
9725616	0	object/static/flora/flora_shrb_dath_glingi.iff	0	1065.17	462.766	1175.24	0.764842	0	-0.644218	0		$|
9725617	0	object/static/flora/flora_shrb_dath_glingi.iff	0	1069.6	462.024	1171.67	1	0	0	0		$|
9765354	0	object/static/structure/general/streetlamp_large_red_style_01.iff	0	2027.28	128	948.202	-0.707107	0	0.707107	0		$|
9765355	0	object/static/structure/general/streetlamp_large_red_style_01.iff	0	1838.94	128	804.569	0.124675	0	0.992198	0		$|
9765356	0	object/static/structure/general/streetlamp_large_red_style_01.iff	0	1844.83	128	805.819	0.0841042	0	0.996457	0		$|
9765360	0	object/static/structure/general/streetlamp_large_style_01.iff	0	1826.27	132.014	754.333	0.707108	0	0.707106	0		$|
9765361	0	object/static/structure/general/streetlamp_large_style_01.iff	0	1863.02	131.741	724.571	1	0	0	0		$|
9765362	0	object/static/structure/general/streetlamp_large_style_01.iff	0	1892.86	131.811	756.99	-0.707101	0	0.707112	0		$|
9765364	0	object/static/structure/general/streetlamp_large_style_01.iff	0	1878.65	132.088	793.714	-0.0649543	0	0.997888	0		$|
9765365	0	object/static/structure/general/streetlamp_large_red_style_01.iff	0	1819.66	123.835	875.371	0.898261	0	0.439462	0		$|
9765367	0	object/static/structure/general/streetlamp_large_red_style_01.iff	0	1694.32	128	787.977	0.908966	0	0.416871	0		$|
9765368	0	object/static/structure/general/streetlamp_large_red_style_01.iff	0	1686.33	128	927.308	-0.453596	0	0.891207	0		$|
9765369	0	object/static/structure/general/streetlamp_large_red_style_01.iff	0	1689.82	128	922.347	-0.453596	0	0.891207	0		$|
9765370	0	object/static/structure/general/streetlamp_large_red_style_01.iff	0	1721.05	120	962.455	0.475732	0	0.87959	0		$|
9765371	0	object/static/structure/general/streetlamp_large_red_style_01.iff	0	1719.78	120	983.386	0.7991	0	0.601198	0		$|
9765372	0	object/static/structure/general/streetlamp_large_red_style_01.iff	0	1795.38	120	911.889	-0.707107	0	0.707107	0		$|
9765373	0	object/static/structure/general/streetlamp_large_red_style_01.iff	0	1806.41	120	988.517	-0.11057	0	0.993868	0		$|
9765374	0	object/static/structure/general/streetlamp_large_red_style_01.iff	0	1846.35	120	992.915	0.710913	0	-0.70328	0		$|
9765375	0	object/static/structure/general/streetlamp_large_red_style_01.iff	0	1872.91	120	978.05	-0.104807	0	0.994493	0		$|
9765376	0	object/static/structure/general/streetlamp_large_red_style_01.iff	0	1858.68	128	1062.5	-0.120503	0	0.992713	0		$|
9765377	0	object/static/structure/general/streetlamp_large_red_style_01.iff	0	1995.54	128	1017.83	0.915116	0	0.40319	0		$|
9765378	0	object/static/structure/general/streetlamp_large_red_style_01.iff	0	1972.51	120	1002.37	-0.413046	0	0.91071	0		$|
9765379	0	object/static/structure/general/streetlamp_large_red_style_01.iff	0	1889.04	120	884.614	0.998488	0	0.0549723	0		$|
9765381	0	object/static/structure/general/streetlamp_large_red_style_01.iff	0	1774.08	120	862.052	0.921061	0	0.389418	0		$|
9765382	0	object/static/structure/general/streetlamp_large_red_style_01.iff	0	1855.77	120	920.354	0.707388	0	0.706826	0		$|
9765383	0	object/static/structure/general/streetlamp_large_red_style_01.iff	0	1855.5	120	935.497	0.714421	0	0.699716	0		$|
9765384	0	object/static/structure/general/streetlamp_large_red_style_01.iff	0	1658.66	128	1004.38	0.343646	0	0.939099	0		$|
9765385	0	object/static/structure/general/streetlamp_large_red_style_01.iff	0	1711.45	128	859.439	-0.700285	0	0.713864	0		$|
9765386	0	object/static/structure/general/streetlamp_large_red_style_01.iff	0	1775.54	128	804.919	0.0557674	0	0.998444	0		$|
9765387	0	object/static/structure/general/streetlamp_large_red_style_01.iff	0	1917.03	128	868.873	0.544503	0	0.838759	0		$|
9765388	0	object/static/structure/general/streetlamp_large_red_style_01.iff	0	1981.62	128	907.967	0.115538	0	0.993303	0		$|
9765389	0	object/static/structure/general/streetlamp_large_red_style_01.iff	0	1921.91	128	1040.59	0.90687	0	0.42141	0		$|
9765390	0	object/static/structure/general/streetlamp_large_red_style_01.iff	0	1768.41	128	1064.42	0.989506	0	0.144492	0		$|
9765391	0	object/static/structure/general/streetlamp_large_red_style_01.iff	0	1696.25	128	1062.93	0.882333	0	-0.470626	0		$|
1105909	0	object/tangible/poi/spawnegg/exterior_spawnegg.iff	0	1078.083008	461.069458	1181.001953	1	0	0	0		$|
1105910	0	object/tangible/poi/spawnegg/exterior_spawnegg.iff	0	1101.258301	446.5675049	1199.215576	1	0	0	0		$|
1105911	0	object/tangible/poi/spawnegg/exterior_spawnegg.iff	0	1078.383301	462.1099854	1174.657715	1	0	0	0		$|
1105912	0	object/tangible/poi/spawnegg/exterior_spawnegg.iff	0	1071.517578	461.6935425	1180.241943	1	0	0	0		$|
9185412	0	object/tangible/poi/spawnegg/exterior_spawnegg.iff	0	1916.044922	130.1003113	784.0938721	1	0	0	0		$|
9185413	0	object/tangible/poi/spawnegg/exterior_spawnegg.iff	0	1674.327148	130.1124268	793.5327148	1	0	0	0		$|
9185414	0	object/tangible/poi/spawnegg/exterior_spawnegg.iff	0	1745.746582	130	1098.40979	1	0	0	0		$|
-1	0	object/tangible/poi/tatooine/explore_dat_imp_prison.iff	0	1856	124	923	1	0	0	0		$|
